E: 2455.327131 0003 002f 0
E: 2455.327131 0003 0039 -1
E: 2455.327131 0003 002f 1
E: 2455.327131 0003 0039 -1
E: 2455.327131 0003 002f 2
E: 2455.327131 0003 0039 -1
E: 2455.327131 0003 002f 3
E: 2455.327131 0003 0039 -1
E: 2455.327131 0003 002f 4
E: 2455.327131 0003 0039 -1
E: 2455.327131 0003 002f 5
E: 2455.327131 0003 0039 -1
E: 2455.327131 0003 002f 6
E: 2455.327131 0003 0039 -1
E: 2455.327131 0003 002f 7
E: 2455.327131 0003 0039 -1
E: 2455.327131 0003 002f 8
E: 2455.327131 0003 0039 -1
E: 2455.327131 0003 002f 9
E: 2455.327131 0003 0039 -1
E: 2455.327131 0003 002f 10
E: 2455.327131 0003 0039 -1
E: 2455.327131 0003 002f 11
E: 2455.327131 0003 0039 -1
E: 2455.327131 0003 002f 12
E: 2455.327131 0003 0039 -1
E: 2455.327131 0003 002f 13
E: 2455.327131 0003 0039 -1
E: 2455.327131 0003 002f 14
E: 2455.327131 0003 0039 -1
E: 2455.327131 0003 002f 0
E: 2455.327131 0000 0000 0
E: 2456.041254 0003 0039 891
E: 2456.041260 0003 0035 1256
E: 2456.041263 0003 0036 301
E: 2456.041265 0003 003a 15
E: 2456.041296 0001 014a 1
E: 2456.041298 0001 0145 1
E: 2456.041303 0003 0000 1256
E: 2456.041306 0003 0001 301
E: 2456.041308 0003 0018 15
E: 2456.041311 0000 0000 0
E: 2456.053512 0003 0035 1251
E: 2456.053517 0003 002f 1
E: 2456.053519 0003 0039 892
E: 2456.053522 0003 0035 996
E: 2456.053524 0003 0036 370
E: 2456.053525 0003 003a 12
E: 2456.053547 0001 0145 0
E: 2456.053549 0001 014d 1
E: 2456.053552 0003 0000 1251
E: 2456.053557 0000 0000 0
E: 2456.065400 0003 002f 0
E: 2456.065402 0003 0035 1249
E: 2456.065405 0003 003a 14
E: 2456.065409 0003 002f 1
E: 2456.065410 0003 0035 991
E: 2456.065412 0003 0036 371
E: 2456.065415 0003 003a 26
E: 2456.065439 0003 0000 1249
E: 2456.065442 0003 0018 14
E: 2456.065445 0000 0000 0
E: 2456.077457 0003 0035 985
E: 2456.077460 0003 0036 370
E: 2456.077462 0003 003a 27
E: 2456.077490 0000 0000 0
E: 2456.089522 0003 0035 982
E: 2456.089525 0003 0036 369
E: 2456.089527 0003 003a 25
E: 2456.089554 0000 0000 0
E: 2456.101571 0003 002f 0
E: 2456.101575 0003 0035 1247
E: 2456.101582 0003 002f 1
E: 2456.101583 0003 0035 979
E: 2456.101586 0003 003a 20
E: 2456.101615 0003 0000 1247
E: 2456.101620 0000 0000 0
E: 2456.113627 0003 002f 0
E: 2456.113631 0003 0035 1246
E: 2456.113633 0003 0036 307
E: 2456.113638 0003 002f 1
E: 2456.113640 0003 0035 980
E: 2456.113643 0003 0036 372
E: 2456.113645 0003 003a 11
E: 2456.113677 0003 0000 1246
E: 2456.113680 0003 0001 307
E: 2456.113684 0000 0000 0
E: 2456.123294 0003 002f 0
E: 2456.123296 0003 0035 1249
E: 2456.123298 0003 0036 308
E: 2456.123302 0003 002f 1
E: 2456.123304 0003 0039 -1
E: 2456.123325 0001 0145 1
E: 2456.123327 0001 014d 0
E: 2456.123330 0003 0000 1249
E: 2456.123332 0003 0001 308
E: 2456.123335 0000 0000 0
E: 2456.133071 0003 002f 0
E: 2456.133073 0003 0035 1238
E: 2456.133076 0003 003a 10
E: 2456.133102 0003 0000 1238
E: 2456.133105 0003 0018 10
E: 2456.133107 0000 0000 0
E: 2456.141258 0003 0039 -1
E: 2456.141296 0001 014a 0
E: 2456.141299 0001 0145 0
E: 2456.141303 0003 0018 0
E: 2456.141306 0000 0000 0
E: 2456.554584 0003 0039 893
E: 2456.554588 0003 0035 1175
E: 2456.554591 0003 0036 250
E: 2456.554593 0003 003a 4
E: 2456.554615 0001 014a 1
E: 2456.554617 0001 0145 1
E: 2456.554621 0003 0000 1175
E: 2456.554623 0003 0001 250
E: 2456.554625 0003 0018 4
E: 2456.554627 0000 0000 0
E: 2456.566283 0003 0035 1177
E: 2456.566288 0003 0036 260
E: 2456.566290 0003 003a 17
E: 2456.566293 0003 002f 1
E: 2456.566295 0003 0039 894
E: 2456.566298 0003 0035 921
E: 2456.566300 0003 0036 365
E: 2456.566302 0003 003a 26
E: 2456.566327 0001 0145 0
E: 2456.566329 0001 014d 1
E: 2456.566332 0003 0000 1177
E: 2456.566334 0003 0001 260
E: 2456.566337 0003 0018 17
E: 2456.566340 0000 0000 0
E: 2456.577947 0003 0035 913
E: 2456.577950 0003 0036 364
E: 2456.577952 0003 003a 32
E: 2456.577979 0000 0000 0
E: 2456.589663 0003 002f 0
E: 2456.589666 0003 0035 1175
E: 2456.589668 0003 0036 258
E: 2456.589673 0003 002f 1
E: 2456.589674 0003 0035 906
E: 2456.589677 0003 003a 33
E: 2456.589701 0003 0000 1175
E: 2456.589703 0003 0001 258
E: 2456.589706 0000 0000 0
E: 2456.601358 0003 002f 0
E: 2456.601361 0003 0036 259
E: 2456.601364 0003 003a 16
E: 2456.601372 0003 002f 1
E: 2456.601374 0003 0035 901
E: 2456.601379 0003 003a 30
E: 2456.601429 0003 0001 259
E: 2456.601433 0003 0018 16
E: 2456.601438 0000 0000 0
E: 2456.613061 0003 002f 0
E: 2456.613065 0003 0036 258
E: 2456.613068 0003 003a 17
E: 2456.613074 0003 002f 1
E: 2456.613076 0003 0035 900
E: 2456.613120 0003 0001 258
E: 2456.613123 0003 0018 17
E: 2456.613126 0000 0000 0
E: 2456.624744 0003 002f 0
E: 2456.624746 0003 0035 1177
E: 2456.624749 0003 0036 260
E: 2456.624754 0003 002f 1
E: 2456.624755 0003 0036 365
E: 2456.624757 0003 003a 27
E: 2456.624803 0003 0000 1177
E: 2456.624807 0003 0001 260
E: 2456.624811 0000 0000 0
E: 2456.636415 0003 002f 0
E: 2456.636417 0003 0036 262
E: 2456.636420 0003 003a 18
E: 2456.636424 0003 002f 1
E: 2456.636425 0003 0035 903
E: 2456.636427 0003 0036 368
E: 2456.636429 0003 003a 21
E: 2456.636454 0003 0001 262
E: 2456.636456 0003 0018 18
E: 2456.636459 0000 0000 0
E: 2456.648116 0003 002f 0
E: 2456.648118 0003 0036 263
E: 2456.648120 0003 003a 17
E: 2456.648125 0003 002f 1
E: 2456.648126 0003 0035 909
E: 2456.648128 0003 0036 369
E: 2456.648130 0003 003a 8
E: 2456.648155 0003 0001 263
E: 2456.648157 0003 0018 17
E: 2456.648160 0000 0000 0
E: 2456.657694 0003 002f 0
E: 2456.657696 0003 0035 1173
E: 2456.657699 0003 0036 272
E: 2456.657701 0003 003a 8
E: 2456.657704 0003 002f 1
E: 2456.657705 0003 0039 -1
E: 2456.657726 0001 0145 1
E: 2456.657728 0001 014d 0
E: 2456.657731 0003 0000 1173
E: 2456.657733 0003 0001 272
E: 2456.657735 0003 0018 8
E: 2456.657737 0000 0000 0
E: 2456.665866 0003 002f 0
E: 2456.665869 0003 0039 -1
E: 2456.665904 0001 014a 0
E: 2456.665906 0001 0145 0
E: 2456.665910 0003 0018 0
E: 2456.665912 0000 0000 0
E: 2456.666412 0003 002f 0
E: 2456.666412 0003 0039 -1
E: 2456.666412 0003 002f 1
E: 2456.666412 0003 0039 -1
E: 2456.666412 0003 002f 2
E: 2456.666412 0003 0039 -1
E: 2456.666412 0003 002f 3
E: 2456.666412 0003 0039 -1
E: 2456.666412 0003 002f 4
E: 2456.666412 0003 0039 -1
E: 2456.666412 0003 002f 5
E: 2456.666412 0003 0039 -1
E: 2456.666412 0003 002f 6
E: 2456.666412 0003 0039 -1
E: 2456.666412 0003 002f 7
E: 2456.666412 0003 0039 -1
E: 2456.666412 0003 002f 8
E: 2456.666412 0003 0039 -1
E: 2456.666412 0003 002f 9
E: 2456.666412 0003 0039 -1
E: 2456.666412 0003 002f 10
E: 2456.666412 0003 0039 -1
E: 2456.666412 0003 002f 11
E: 2456.666412 0003 0039 -1
E: 2456.666412 0003 002f 12
E: 2456.666412 0003 0039 -1
E: 2456.666412 0003 002f 13
E: 2456.666412 0003 0039 -1
E: 2456.666412 0003 002f 14
E: 2456.666412 0003 0039 -1
