{
  "main_sensor_mirror": 0,
  "main_sensor_flip": 0,
  "main_sensor_tuning_module_id": 0,
  "main_sensor_eeprom": "/sys/bus/nvmem/devices/2-00580/nvmem",
  "sub_sensor_mirror": 0,
  "sub_sensor_flip": 0,
  "sub_sensor_tuning_module_id": 0,
  "sub_sensor_eeprom": "/sys/bus/nvmem/devices/4-00540/nvmem"
}
