# device: ACPI0C50:01 04F3:30C5 Touchpad
# bit: 1B 00 00 00 00 00 00 00
# key: 00 00 00 00 00 00 00 00 00 00 00 00 00 00 00 00 00 00 00 00 00 00 00 00 00 00 00 00 00 00 00 00 00 00 01 00 00 00 00 00 20 E5 00 00 00 00 00 00 00 00 00 00 00 00 00 00 00 00 00 00 00 00 00 00 00 00 00 00 00 00 00 00 00 00 00 00 00 00 00 00 00 00 00 00 00 00 00 00 00 00 00 00 00 00 00 00
# rel: 00 00 00 00 00 00 00 00
# abs: 03 00 00 01 00 80 F3 06
# led: 00 00 00 00 00 00 00 00
# prp: 05 00 00 00 00 00 00 00
# absinfo: 0 0 3602 0 0 32
# absinfo: 1 0 1987 0 0 32
# absinfo: 24 0 255 0 0 0
# absinfo: 47 0 4 0 0 0
# absinfo: 48 0 4095 0 0 65
# absinfo: 49 0 4095 0 0 65
# absinfo: 52 0 1 0 0 0
# absinfo: 53 0 3602 0 0 32
# absinfo: 54 0 1987 0 0 32
# absinfo: 55 0 2 0 0 0
# absinfo: 57 0 65535 0 0 0
# absinfo: 58 0 255 0 0 0
E: 8315.117294 0003 002f 0
E: 8315.117294 0003 0030 210
E: 8315.117294 0003 0031 192
E: 8315.117294 0003 0032 0
E: 8315.117294 0003 0033 0
E: 8315.117294 0003 0034 0
E: 8315.117294 0003 0035 3174
E: 8315.117294 0003 0036 850
E: 8315.117294 0003 0037 0
E: 8315.117294 0003 0038 0
E: 8315.117294 0003 0039 2418
E: 8315.117294 0003 003a 24
E: 8315.117294 0003 003b 0
E: 8315.117294 0003 002f 1
E: 8315.117294 0003 0039 -1
E: 8315.117294 0003 002f 2
E: 8315.117294 0003 0039 -1
E: 8315.117294 0003 002f 3
E: 8315.117294 0003 0039 -1
E: 8315.117294 0003 002f 4
E: 8315.117294 0003 0039 -1
E: 8315.117294 0003 002f 0
E: 8315.117294 0001 0145 1
E: 8315.117294 0001 014a 1
E: 8315.117294 0000 0000 0
E: 8315.125257 0003 0034 1
E: 8315.125257 0003 0030 240
E: 8315.125257 0003 0031 210
E: 8315.125257 0004 0005 3099900
E: 8315.125257 0000 0000 0
E: 8315.133298 0003 0034 0
E: 8315.133298 0003 0030 210
E: 8315.133298 0003 0031 192
E: 8315.133298 0004 0005 3107900
E: 8315.133298 0000 0000 0
E: 8315.141347 0003 0034 1
E: 8315.141347 0003 0030 240
E: 8315.141347 0003 0031 210
E: 8315.141347 0004 0005 3115900
E: 8315.141347 0000 0000 0
E: 8315.149419 0004 0005 3123900
E: 8315.149419 0000 0000 0
E: 8315.157466 0004 0005 3131900
E: 8315.157466 0000 0000 0
E: 8315.165486 0003 0034 0
E: 8315.165486 0003 003a 22
E: 8315.165486 0003 0030 210
E: 8315.165486 0003 0031 192
E: 8315.165486 0003 0018 22
E: 8315.165486 0004 0005 3139900
E: 8315.165486 0000 0000 0
E: 8315.173563 0003 003a 21
E: 8315.173563 0003 0018 21
E: 8315.173563 0004 0005 3147900
E: 8315.173563 0000 0000 0
E: 8315.181584 0003 003a 19
E: 8315.181584 0003 0018 19
E: 8315.181584 0004 0005 3155900
E: 8315.181584 0000 0000 0
E: 8315.189626 0003 0034 1
E: 8315.189626 0003 003a 14
E: 8315.189626 0003 0030 192
E: 8315.189626 0003 0031 126
E: 8315.189626 0003 0018 14
E: 8315.189626 0004 0005 3163900
E: 8315.189626 0000 0000 0
E: 8315.197758 0003 0035 3172
E: 8315.197758 0003 0036 849
E: 8315.197758 0003 003a 13
E: 8315.197758 0003 0000 3172
E: 8315.197758 0003 0001 849
E: 8315.197758 0003 0018 13
E: 8315.197758 0004 0005 3171900
E: 8315.197758 0000 0000 0
E: 8315.214811 0003 0035 3170
E: 8315.214811 0003 0036 848
E: 8315.214811 0003 0030 48
E: 8315.214811 0003 0031 42
E: 8315.214811 0003 0000 3170
E: 8315.214811 0003 0001 848
E: 8315.214811 0004 0005 3188900
E: 8315.214811 0000 0000 0
E: 8315.224891 0003 0039 -1
E: 8315.224891 0001 014a 0
E: 8315.224891 0001 0145 0
E: 8315.224891 0003 0018 0
E: 8315.224891 0004 0005 3198900
E: 8315.224891 0000 0000 0
E: 8315.225391 0003 002f 0
E: 8315.225391 0003 0039 -1
E: 8315.225391 0003 002f 1
E: 8315.225391 0003 0039 -1
E: 8315.225391 0003 002f 2
E: 8315.225391 0003 0039 -1
E: 8315.225391 0003 002f 3
E: 8315.225391 0003 0039 -1
E: 8315.225391 0003 002f 4
E: 8315.225391 0003 0039 -1
